…
Examples
-------------------

```R
subsampleDb(AIRRDb)

```


```
# A tibble: 140 x 26
   sequence_id                 sequence rev_comp productive v_call d_call j_call
   <chr>                       <chr>    <lgl>    <lgl>      <chr>  <chr>  <chr> 
 1 130679_0980_0761_length=43~ NNNNNNN~ NA       TRUE       IGHV1~ IGHD1~ IGHJ6~
 2 138963_3155_2096_length=43~ NNNNNNN~ NA       TRUE       IGHV1~ IGHD4~ IGHJ4~
 3 232991_1649_3592_length=43~ NNNNNNN~ NA       TRUE       IGHV1~ IGHD6~ IGHJ4~
 4 037149_0503_1038_length=45~ NNNNNNN~ NA       TRUE       IGHV1~ IGHD3~ IGHJ3~
 5 046606_0311_0428_length=44~ NNNNNNN~ NA       TRUE       IGHV1~ IGHD3~ IGHJ4~
 6 216998_3721_3981_length=43~ NNNNNNN~ NA       TRUE       IGHV1~ IGHD2~ IGHJ4~
 7 063000_2573_3080_length=45~ NNNNNNN~ NA       TRUE       IGHV1~ IGHD2~ IGHJ6~
 8 211918_3641_1700_length=44~ NNNNNNN~ NA       TRUE       IGHV1~ IGHD2~ IGHJ4~
 9 236910_1609_2498_length=44~ NNNNNNN~ NA       TRUE       IGHV1~ IGHD2~ IGHJ4~
10 107673_3212_3364_length=45~ NNNNNNN~ NA       TRUE       IGHV1~ IGHD2~ IGHJ6~
# i 130 more rows
# i 19 more variables: sequence_alignment <chr>, germline_alignment <lgl>,
#   junction <chr>, junction_aa <lgl>, v_cigar <lgl>, d_cigar <lgl>,
#   j_cigar <lgl>, vj_in_frame <lgl>, stop_codon <lgl>, v_germline_end <lgl>,
#   np1_length <dbl>, np2_length <dbl>, j_germline_end <lgl>,
#   junction_length <dbl>, mutated_invariant <lgl>, indels <lgl>,
#   d_5_trim <dbl>, d_3_trim <dbl>, j_5_trim <dbl>
…
